module gitlab.com/go-course-project/public-project/webhook

go 1.22.0

require (
	github.com/emicklei/go-restful-openapi/v2 v2.9.1
	github.com/emicklei/go-restful/v3 v3.12.0
	github.com/google/uuid v1.6.0
	github.com/infraboard/mcube/v2 v2.0.40
	github.com/rs/zerolog v1.32.0
	gorm.io/gorm v1.25.12
)

require (
	github.com/BurntSushi/toml v1.3.2 // indirect
	github.com/caarlos0/env/v6 v6.10.1 // indirect
	github.com/cenkalti/backoff/v4 v4.2.1 // indirect
	github.com/dustin/go-humanize v1.0.1 // indirect
	github.com/glebarez/go-sqlite v1.22.0 // indirect
	github.com/glebarez/sqlite v1.11.0 // indirect
	github.com/go-logr/logr v1.4.1 // indirect
	github.com/go-logr/stdr v1.2.2 // indirect
	github.com/go-openapi/jsonpointer v0.21.0 // indirect
	github.com/go-openapi/jsonreference v0.21.0 // indirect
	github.com/go-openapi/spec v0.21.0 // indirect
	github.com/go-openapi/swag v0.23.0 // indirect
	github.com/go-sql-driver/mysql v1.7.0 // indirect
	github.com/grpc-ecosystem/grpc-gateway/v2 v2.19.0 // indirect
	github.com/inconshreveable/mousetrap v1.1.0 // indirect
	github.com/jackc/pgpassfile v1.0.0 // indirect
	github.com/jackc/pgservicefile v0.0.0-20221227161230-091c0ba34f0a // indirect
	github.com/jackc/pgx/v5 v5.5.5 // indirect
	github.com/jackc/puddle/v2 v2.2.1 // indirect
	github.com/jinzhu/inflection v1.0.0 // indirect
	github.com/jinzhu/now v1.1.5 // indirect
	github.com/josharian/intern v1.0.0 // indirect
	github.com/mailru/easyjson v0.7.7 // indirect
	github.com/mattn/go-colorable v0.1.13 // indirect
	github.com/mattn/go-isatty v0.0.20 // indirect
	github.com/pkg/errors v0.9.1 // indirect
	github.com/remyoudompheng/bigfft v0.0.0-20230129092748-24d4a6f8daec // indirect
	github.com/spf13/cobra v1.8.0 // indirect
	github.com/spf13/pflag v1.0.5 // indirect
	github.com/uptrace/opentelemetry-go-extra/otelgorm v0.2.3 // indirect
	github.com/uptrace/opentelemetry-go-extra/otelsql v0.2.3 // indirect
	go.opentelemetry.io/contrib/instrumentation/github.com/emicklei/go-restful/otelrestful v0.49.0 // indirect
	go.opentelemetry.io/contrib/instrumentation/google.golang.org/grpc/otelgrpc v0.49.0 // indirect
	go.opentelemetry.io/otel v1.24.0 // indirect
	go.opentelemetry.io/otel/exporters/otlp/otlptrace v1.24.0 // indirect
	go.opentelemetry.io/otel/exporters/otlp/otlptrace/otlptracehttp v1.24.0 // indirect
	go.opentelemetry.io/otel/metric v1.24.0 // indirect
	go.opentelemetry.io/otel/sdk v1.24.0 // indirect
	go.opentelemetry.io/otel/trace v1.24.0 // indirect
	go.opentelemetry.io/proto/otlp v1.1.0 // indirect
	golang.org/x/crypto v0.23.0 // indirect
	golang.org/x/net v0.23.0 // indirect
	golang.org/x/sync v0.6.0 // indirect
	golang.org/x/sys v0.20.0 // indirect
	golang.org/x/text v0.15.0 // indirect
	google.golang.org/genproto/googleapis/api v0.0.0-20240227224415-6ceb2ff114de // indirect
	google.golang.org/genproto/googleapis/rpc v0.0.0-20240227224415-6ceb2ff114de // indirect
	google.golang.org/grpc v1.63.2 // indirect
	google.golang.org/protobuf v1.33.0 // indirect
	gopkg.in/natefinch/lumberjack.v2 v2.2.1 // indirect
	gopkg.in/yaml.v3 v3.0.1 // indirect
	gorm.io/driver/mysql v1.5.6 // indirect
	gorm.io/driver/postgres v1.5.9 // indirect
	modernc.org/libc v1.37.6 // indirect
	modernc.org/mathutil v1.6.0 // indirect
	modernc.org/memory v1.7.2 // indirect
	modernc.org/sqlite v1.28.0 // indirect
	sigs.k8s.io/yaml v1.4.0 // indirect
)
